%YAML 1.1
%TAG !u! tag:unity3d.com,2011:
--- !u!29 &1
OcclusionCullingSettings:
  m_ObjectHideFlags: 0
  serializedVersion: 2
  m_OcclusionBakeSettings:
    smallestOccluder: 5
    smallestHole: 0.25
    backfaceThreshold: 100
  m_SceneGUID: 00000000000000000000000000000000
  m_OcclusionCullingData: {fileID: 0}
--- !u!104 &2
RenderSettings:
  m_ObjectHideFlags: 0
  serializedVersion: 8
  m_Fog: 0
  m_FogColor: {r: 0.5, g: 0.5, b: 0.5, a: 1}
  m_FogMode: 3
  m_FogDensity: 0.01
  m_LinearFogStart: 0
  m_LinearFogEnd: 300
  m_AmbientSkyColor: {r: 0.212, g: 0.227, b: 0.259, a: 1}
  m_AmbientEquatorColor: {r: 0.114, g: 0.125, b: 0.133, a: 1}
  m_AmbientGroundColor: {r: 0.047, g: 0.043, b: 0.035, a: 1}
  m_AmbientIntensity: 1
  m_AmbientMode: 3
  m_SubtractiveShadowColor: {r: 0.42, g: 0.478, b: 0.627, a: 1}
  m_SkyboxMaterial: {fileID: 0}
  m_HaloStrength: 0.5
  m_FlareStrength: 1
  m_FlareFadeSpeed: 3
  m_HaloTexture: {fileID: 0}
  m_SpotCookie: {fileID: 10001, guid: 0000000000000000e000000000000000, type: 0}
  m_DefaultReflectionMode: 0
  m_DefaultReflectionResolution: 128
  m_ReflectionBounces: 1
  m_ReflectionIntensity: 1
  m_CustomReflection: {fileID: 0}
  m_Sun: {fileID: 0}
  m_IndirectSpecularColor: {r: 0, g: 0, b: 0, a: 1}
--- !u!157 &3
LightmapSettings:
  m_ObjectHideFlags: 0
  serializedVersion: 11
  m_GIWorkflowMode: 1
  m_GISettings:
    serializedVersion: 2
    m_BounceScale: 1
    m_IndirectOutputScale: 1
    m_AlbedoBoost: 1
    m_TemporalCoherenceThreshold: 1
    m_EnvironmentLightingMode: 0
    m_EnableBakedLightmaps: 0
    m_EnableRealtimeLightmaps: 0
  m_LightmapEditorSettings:
    serializedVersion: 9
    m_Resolution: 2
    m_BakeResolution: 40
    m_TextureWidth: 1024
    m_TextureHeight: 1024
    m_AO: 0
    m_AOMaxDistance: 1
    m_CompAOExponent: 1
    m_CompAOExponentDirect: 0
    m_Padding: 2
    m_LightmapParameters: {fileID: 0}
    m_LightmapsBakeMode: 1
    m_TextureCompression: 1
    m_FinalGather: 0
    m_FinalGatherFiltering: 1
    m_FinalGatherRayCount: 256
    m_ReflectionCompression: 2
    m_MixedBakeMode: 2
    m_BakeBackend: 0
    m_PVRSampling: 1
    m_PVRDirectSampleCount: 32
    m_PVRSampleCount: 500
    m_PVRBounces: 2
    m_PVRFiltering: 0
    m_PVRFilteringMode: 1
    m_PVRCulling: 1
    m_PVRFilteringGaussRadiusDirect: 1
    m_PVRFilteringGaussRadiusIndirect: 5
    m_PVRFilteringGaussRadiusAO: 2
    m_PVRFilteringAtrousColorSigma: 1
    m_PVRFilteringAtrousNormalSigma: 1
    m_PVRFilteringAtrousPositionSigma: 1
  m_LightingDataAsset: {fileID: 0}
  m_UseShadowmask: 1
--- !u!196 &4
NavMeshSettings:
  serializedVersion: 2
  m_ObjectHideFlags: 0
  m_BuildSettings:
    serializedVersion: 2
    agentTypeID: 0
    agentRadius: 0.5
    agentHeight: 2
    agentSlope: 45
    agentClimb: 0.4
    ledgeDropHeight: 0
    maxJumpAcrossDistance: 0
    minRegionArea: 2
    manualCellSize: 0
    cellSize: 0.16666667
    manualTileSize: 0
    tileSize: 256
    accuratePlacement: 0
  m_NavMeshData: {fileID: 0}
--- !u!1 &178304896
GameObject:
  m_ObjectHideFlags: 0
  m_PrefabParentObject: {fileID: 0}
  m_PrefabInternal: {fileID: 0}
  serializedVersion: 5
  m_Component:
  - component: {fileID: 178304897}
  - component: {fileID: 178304899}
  - component: {fileID: 178304898}
  m_Layer: 0
  m_Name: EventSystem
  m_TagString: Untagged
  m_Icon: {fileID: 0}
  m_NavMeshLayer: 0
  m_StaticEditorFlags: 0
  m_IsActive: 1
--- !u!4 &178304897
Transform:
  m_ObjectHideFlags: 0
  m_PrefabParentObject: {fileID: 0}
  m_PrefabInternal: {fileID: 0}
  m_GameObject: {fileID: 178304896}
  m_LocalRotation: {x: -0, y: -0, z: -0, w: 1}
  m_LocalPosition: {x: -353.5, y: 4, z: 0}
  m_LocalScale: {x: 1, y: 1, z: 1}
  m_Children: []
  m_Father: {fileID: 1264470537}
  m_RootOrder: 0
  m_LocalEulerAnglesHint: {x: 0, y: 0, z: 0}
--- !u!114 &178304898
MonoBehaviour:
  m_ObjectHideFlags: 0
  m_PrefabParentObject: {fileID: 0}
  m_PrefabInternal: {fileID: 0}
  m_GameObject: {fileID: 178304896}
  m_Enabled: 1
  m_EditorHideFlags: 0
  m_Script: {fileID: 1077351063, guid: f70555f144d8491a825f0804e09c671c, type: 3}
  m_Name: 
  m_EditorClassIdentifier: 
  m_HorizontalAxis: Horizontal
  m_VerticalAxis: Vertical
  m_SubmitButton: Submit
  m_CancelButton: Cancel
  m_InputActionsPerSecond: 10
  m_RepeatDelay: 0.5
  m_ForceModuleActive: 0
--- !u!114 &178304899
MonoBehaviour:
  m_ObjectHideFlags: 0
  m_PrefabParentObject: {fileID: 0}
  m_PrefabInternal: {fileID: 0}
  m_GameObject: {fileID: 178304896}
  m_Enabled: 1
  m_EditorHideFlags: 0
  m_Script: {fileID: -619905303, guid: f70555f144d8491a825f0804e09c671c, type: 3}
  m_Name: 
  m_EditorClassIdentifier: 
  m_FirstSelected: {fileID: 0}
  m_sendNavigationEvents: 1
  m_DragThreshold: 5
--- !u!4 &349292906 stripped
Transform:
  m_PrefabParentObject: {fileID: 4961725550989932, guid: 2c6b3aadaf97c2b4a936dd93fbf33bb9,
    type: 2}
  m_PrefabInternal: {fileID: 1585384808}
--- !u!4 &541310312 stripped
Transform:
  m_PrefabParentObject: {fileID: 4961725550989932, guid: 2c6b3aadaf97c2b4a936dd93fbf33bb9,
    type: 2}
  m_PrefabInternal: {fileID: 2022091061}
--- !u!1 &574063982
GameObject:
  m_ObjectHideFlags: 0
  m_PrefabParentObject: {fileID: 0}
  m_PrefabInternal: {fileID: 0}
  serializedVersion: 5
  m_Component:
  - component: {fileID: 574063987}
  - component: {fileID: 574063986}
  - component: {fileID: 574063985}
  - component: {fileID: 574063984}
  - component: {fileID: 574063983}
  m_Layer: 0
  m_Name: Main Camera
  m_TagString: MainCamera
  m_Icon: {fileID: 0}
  m_NavMeshLayer: 0
  m_StaticEditorFlags: 0
  m_IsActive: 1
--- !u!81 &574063983
AudioListener:
  m_ObjectHideFlags: 0
  m_PrefabParentObject: {fileID: 0}
  m_PrefabInternal: {fileID: 0}
  m_GameObject: {fileID: 574063982}
  m_Enabled: 1
--- !u!124 &574063984
Behaviour:
  m_ObjectHideFlags: 0
  m_PrefabParentObject: {fileID: 0}
  m_PrefabInternal: {fileID: 0}
  m_GameObject: {fileID: 574063982}
  m_Enabled: 1
--- !u!92 &574063985
Behaviour:
  m_ObjectHideFlags: 0
  m_PrefabParentObject: {fileID: 0}
  m_PrefabInternal: {fileID: 0}
  m_GameObject: {fileID: 574063982}
  m_Enabled: 1
--- !u!20 &574063986
Camera:
  m_ObjectHideFlags: 0
  m_PrefabParentObject: {fileID: 0}
  m_PrefabInternal: {fileID: 0}
  m_GameObject: {fileID: 574063982}
  m_Enabled: 1
  serializedVersion: 2
  m_ClearFlags: 1
  m_BackGroundColor: {r: 0.19215687, g: 0.3019608, b: 0.4745098, a: 0}
  m_NormalizedViewPortRect:
    serializedVersion: 2
    x: 0
    y: 0
    width: 1
    height: 1
  near clip plane: 0.3
  far clip plane: 1000
  field of view: 62.3
  orthographic: 1
  orthographic size: 7.02
  m_Depth: -1
  m_CullingMask:
    serializedVersion: 2
    m_Bits: 4294967295
  m_RenderingPath: -1
  m_TargetTexture: {fileID: 0}
  m_TargetDisplay: 0
  m_TargetEye: 3
  m_HDR: 1
  m_AllowMSAA: 1
  m_ForceIntoRT: 0
  m_OcclusionCulling: 1
  m_StereoConvergence: 10
  m_StereoSeparation: 0.022
  m_StereoMirrorMode: 0
--- !u!4 &574063987
Transform:
  m_ObjectHideFlags: 0
  m_PrefabParentObject: {fileID: 0}
  m_PrefabInternal: {fileID: 0}
  m_GameObject: {fileID: 574063982}
  m_LocalRotation: {x: 0, y: 0, z: 0, w: 1}
  m_LocalPosition: {x: 0, y: 0, z: -10}
  m_LocalScale: {x: 0.112126976, y: 0.2562003, z: 0.17675188}
  m_Children: []
  m_Father: {fileID: 0}
  m_RootOrder: 0
  m_LocalEulerAnglesHint: {x: 0, y: 0, z: 0}
--- !u!1001 &776511317
Prefab:
  m_ObjectHideFlags: 0
  serializedVersion: 2
  m_Modification:
    m_TransformParent: {fileID: 1035087835}
    m_Modifications:
    - target: {fileID: 4961725550989932, guid: 2c6b3aadaf97c2b4a936dd93fbf33bb9, type: 2}
      propertyPath: m_LocalPosition.x
      value: 2.53
      objectReference: {fileID: 0}
    - target: {fileID: 4961725550989932, guid: 2c6b3aadaf97c2b4a936dd93fbf33bb9, type: 2}
      propertyPath: m_LocalPosition.y
      value: -3.14
      objectReference: {fileID: 0}
    - target: {fileID: 4961725550989932, guid: 2c6b3aadaf97c2b4a936dd93fbf33bb9, type: 2}
      propertyPath: m_LocalPosition.z
      value: 0
      objectReference: {fileID: 0}
    - target: {fileID: 4961725550989932, guid: 2c6b3aadaf97c2b4a936dd93fbf33bb9, type: 2}
      propertyPath: m_LocalRotation.x
      value: -0
      objectReference: {fileID: 0}
    - target: {fileID: 4961725550989932, guid: 2c6b3aadaf97c2b4a936dd93fbf33bb9, type: 2}
      propertyPath: m_LocalRotation.y
      value: -0
      objectReference: {fileID: 0}
    - target: {fileID: 4961725550989932, guid: 2c6b3aadaf97c2b4a936dd93fbf33bb9, type: 2}
      propertyPath: m_LocalRotation.z
      value: -0
      objectReference: {fileID: 0}
    - target: {fileID: 4961725550989932, guid: 2c6b3aadaf97c2b4a936dd93fbf33bb9, type: 2}
      propertyPath: m_LocalRotation.w
      value: 1
      objectReference: {fileID: 0}
    - target: {fileID: 4961725550989932, guid: 2c6b3aadaf97c2b4a936dd93fbf33bb9, type: 2}
      propertyPath: m_RootOrder
      value: 4
      objectReference: {fileID: 0}
    - target: {fileID: 1711769247799684, guid: 2c6b3aadaf97c2b4a936dd93fbf33bb9, type: 2}
      propertyPath: m_Name
      value: cajita (4)
      objectReference: {fileID: 0}
    - target: {fileID: 4961725550989932, guid: 2c6b3aadaf97c2b4a936dd93fbf33bb9, type: 2}
      propertyPath: m_LocalScale.x
      value: 0.59999996
      objectReference: {fileID: 0}
    - target: {fileID: 4961725550989932, guid: 2c6b3aadaf97c2b4a936dd93fbf33bb9, type: 2}
      propertyPath: m_LocalScale.y
      value: 0.59999996
      objectReference: {fileID: 0}
    - target: {fileID: 4961725550989932, guid: 2c6b3aadaf97c2b4a936dd93fbf33bb9, type: 2}
      propertyPath: m_LocalScale.z
      value: 0.59999996
      objectReference: {fileID: 0}
    m_RemovedComponents: []
  m_ParentPrefab: {fileID: 100100000, guid: 2c6b3aadaf97c2b4a936dd93fbf33bb9, type: 2}
  m_IsPrefabParent: 0
--- !u!1 &814209026
GameObject:
  m_ObjectHideFlags: 0
  m_PrefabParentObject: {fileID: 0}
  m_PrefabInternal: {fileID: 0}
  serializedVersion: 5
  m_Component:
  - component: {fileID: 814209030}
  - component: {fileID: 814209029}
  - component: {fileID: 814209028}
  - component: {fileID: 814209027}
  m_Layer: 5
  m_Name: Canvas
  m_TagString: Untagged
  m_Icon: {fileID: 0}
  m_NavMeshLayer: 0
  m_StaticEditorFlags: 0
  m_IsActive: 1
--- !u!114 &814209027
MonoBehaviour:
  m_ObjectHideFlags: 0
  m_PrefabParentObject: {fileID: 0}
  m_PrefabInternal: {fileID: 0}
  m_GameObject: {fileID: 814209026}
  m_Enabled: 1
  m_EditorHideFlags: 0
  m_Script: {fileID: 1301386320, guid: f70555f144d8491a825f0804e09c671c, type: 3}
  m_Name: 
  m_EditorClassIdentifier: 
  m_IgnoreReversedGraphics: 1
  m_BlockingObjects: 0
  m_BlockingMask:
    serializedVersion: 2
    m_Bits: 4294967295
--- !u!114 &814209028
MonoBehaviour:
  m_ObjectHideFlags: 0
  m_PrefabParentObject: {fileID: 0}
  m_PrefabInternal: {fileID: 0}
  m_GameObject: {fileID: 814209026}
  m_Enabled: 1
  m_EditorHideFlags: 0
  m_Script: {fileID: 1980459831, guid: f70555f144d8491a825f0804e09c671c, type: 3}
  m_Name: 
  m_EditorClassIdentifier: 
  m_UiScaleMode: 0
  m_ReferencePixelsPerUnit: 100
  m_ScaleFactor: 1
  m_ReferenceResolution: {x: 800, y: 600}
  m_ScreenMatchMode: 0
  m_MatchWidthOrHeight: 0
  m_PhysicalUnit: 3
  m_FallbackScreenDPI: 96
  m_DefaultSpriteDPI: 96
  m_DynamicPixelsPerUnit: 1
--- !u!223 &814209029
Canvas:
  m_ObjectHideFlags: 0
  m_PrefabParentObject: {fileID: 0}
  m_PrefabInternal: {fileID: 0}
  m_GameObject: {fileID: 814209026}
  m_Enabled: 1
  serializedVersion: 3
  m_RenderMode: 0
  m_Camera: {fileID: 0}
  m_PlaneDistance: 100
  m_PixelPerfect: 0
  m_ReceivesEvents: 1
  m_OverrideSorting: 0
  m_OverridePixelPerfect: 0
  m_SortingBucketNormalizedSize: 0
  m_AdditionalShaderChannelsFlag: 0
  m_SortingLayerID: 0
  m_SortingOrder: 0
  m_TargetDisplay: 0
--- !u!224 &814209030
RectTransform:
  m_ObjectHideFlags: 0
  m_PrefabParentObject: {fileID: 0}
  m_PrefabInternal: {fileID: 0}
  m_GameObject: {fileID: 814209026}
  m_LocalRotation: {x: 0, y: 0, z: 0, w: 1}
  m_LocalPosition: {x: 0, y: 0, z: 0}
  m_LocalScale: {x: 0, y: 0, z: 0}
  m_Children:
  - {fileID: 1264470537}
  m_Father: {fileID: 0}
  m_RootOrder: 4
  m_LocalEulerAnglesHint: {x: 0, y: 0, z: 0}
  m_AnchorMin: {x: 0, y: 0}
  m_AnchorMax: {x: 0, y: 0}
  m_AnchoredPosition: {x: 0, y: 0}
  m_SizeDelta: {x: 0, y: 0}
  m_Pivot: {x: 0, y: 0}
--- !u!1001 &930871931
Prefab:
  m_ObjectHideFlags: 0
  serializedVersion: 2
  m_Modification:
    m_TransformParent: {fileID: 1035087835}
    m_Modifications:
    - target: {fileID: 4961725550989932, guid: 2c6b3aadaf97c2b4a936dd93fbf33bb9, type: 2}
      propertyPath: m_LocalPosition.x
      value: -0.29
      objectReference: {fileID: 0}
    - target: {fileID: 4961725550989932, guid: 2c6b3aadaf97c2b4a936dd93fbf33bb9, type: 2}
      propertyPath: m_LocalPosition.y
      value: 0.17
      objectReference: {fileID: 0}
    - target: {fileID: 4961725550989932, guid: 2c6b3aadaf97c2b4a936dd93fbf33bb9, type: 2}
      propertyPath: m_LocalPosition.z
      value: 0
      objectReference: {fileID: 0}
    - target: {fileID: 4961725550989932, guid: 2c6b3aadaf97c2b4a936dd93fbf33bb9, type: 2}
      propertyPath: m_LocalRotation.x
      value: -0
      objectReference: {fileID: 0}
    - target: {fileID: 4961725550989932, guid: 2c6b3aadaf97c2b4a936dd93fbf33bb9, type: 2}
      propertyPath: m_LocalRotation.y
      value: -0
      objectReference: {fileID: 0}
    - target: {fileID: 4961725550989932, guid: 2c6b3aadaf97c2b4a936dd93fbf33bb9, type: 2}
      propertyPath: m_LocalRotation.z
      value: -0
      objectReference: {fileID: 0}
    - target: {fileID: 4961725550989932, guid: 2c6b3aadaf97c2b4a936dd93fbf33bb9, type: 2}
      propertyPath: m_LocalRotation.w
      value: 1
      objectReference: {fileID: 0}
    - target: {fileID: 4961725550989932, guid: 2c6b3aadaf97c2b4a936dd93fbf33bb9, type: 2}
      propertyPath: m_RootOrder
      value: 1
      objectReference: {fileID: 0}
    - target: {fileID: 1711769247799684, guid: 2c6b3aadaf97c2b4a936dd93fbf33bb9, type: 2}
      propertyPath: m_Name
      value: cajita (1)
      objectReference: {fileID: 0}
    - target: {fileID: 4961725550989932, guid: 2c6b3aadaf97c2b4a936dd93fbf33bb9, type: 2}
      propertyPath: m_LocalScale.x
      value: 0.59999996
      objectReference: {fileID: 0}
    - target: {fileID: 4961725550989932, guid: 2c6b3aadaf97c2b4a936dd93fbf33bb9, type: 2}
      propertyPath: m_LocalScale.y
      value: 0.59999996
      objectReference: {fileID: 0}
    - target: {fileID: 4961725550989932, guid: 2c6b3aadaf97c2b4a936dd93fbf33bb9, type: 2}
      propertyPath: m_LocalScale.z
      value: 0.59999996
      objectReference: {fileID: 0}
    m_RemovedComponents: []
  m_ParentPrefab: {fileID: 100100000, guid: 2c6b3aadaf97c2b4a936dd93fbf33bb9, type: 2}
  m_IsPrefabParent: 0
--- !u!1 &1025207551
GameObject:
  m_ObjectHideFlags: 0
  m_PrefabParentObject: {fileID: 0}
  m_PrefabInternal: {fileID: 0}
  serializedVersion: 5
  m_Component:
  - component: {fileID: 1025207557}
  - component: {fileID: 1025207556}
  - component: {fileID: 1025207555}
  - component: {fileID: 1025207554}
  - component: {fileID: 1025207553}
  - component: {fileID: 1025207552}
  m_Layer: 0
  m_Name: Jungle Map
  m_TagString: Untagged
  m_Icon: {fileID: 0}
  m_NavMeshLayer: 0
  m_StaticEditorFlags: 0
  m_IsActive: 1
--- !u!61 &1025207552
BoxCollider2D:
  m_ObjectHideFlags: 0
  m_PrefabParentObject: {fileID: 0}
  m_PrefabInternal: {fileID: 0}
  m_GameObject: {fileID: 1025207551}
  m_Enabled: 1
  m_Density: 1
  m_Material: {fileID: 0}
  m_IsTrigger: 0
  m_UsedByEffector: 0
  m_UsedByComposite: 0
  m_Offset: {x: 0.05, y: -2.89}
  m_SpriteTilingProperty:
    border: {x: 0, y: 0, z: 0, w: 0}
    pivot: {x: 0.5, y: 0.5}
    oldSize: {x: 6.09, y: 6}
    newSize: {x: 6.09, y: 6}
    adaptiveTilingThreshold: 0.5
    drawMode: 0
    adaptiveTiling: 0
  m_AutoTiling: 0
  serializedVersion: 2
  m_Size: {x: 5.95, y: 0.14}
  m_EdgeRadius: 0
--- !u!61 &1025207553
BoxCollider2D:
  m_ObjectHideFlags: 0
  m_PrefabParentObject: {fileID: 0}
  m_PrefabInternal: {fileID: 0}
  m_GameObject: {fileID: 1025207551}
  m_Enabled: 1
  m_Density: 1
  m_Material: {fileID: 0}
  m_IsTrigger: 0
  m_UsedByEffector: 0
  m_UsedByComposite: 0
  m_Offset: {x: 0.02, y: 2.84}
  m_SpriteTilingProperty:
    border: {x: 0, y: 0, z: 0, w: 0}
    pivot: {x: 0.5, y: 0.5}
    oldSize: {x: 6.09, y: 6}
    newSize: {x: 6.09, y: 6}
    adaptiveTilingThreshold: 0.5
    drawMode: 0
    adaptiveTiling: 0
  m_AutoTiling: 0
  serializedVersion: 2
  m_Size: {x: 5.95, y: 0.14}
  m_EdgeRadius: 0
--- !u!61 &1025207554
BoxCollider2D:
  m_ObjectHideFlags: 0
  m_PrefabParentObject: {fileID: 0}
  m_PrefabInternal: {fileID: 0}
  m_GameObject: {fileID: 1025207551}
  m_Enabled: 1
  m_Density: 1
  m_Material: {fileID: 0}
  m_IsTrigger: 0
  m_UsedByEffector: 0
  m_UsedByComposite: 0
  m_Offset: {x: -2.89, y: 0}
  m_SpriteTilingProperty:
    border: {x: 0, y: 0, z: 0, w: 0}
    pivot: {x: 0.5, y: 0.5}
    oldSize: {x: 6.09, y: 6}
    newSize: {x: 6.09, y: 6}
    adaptiveTilingThreshold: 0.5
    drawMode: 0
    adaptiveTiling: 0
  m_AutoTiling: 0
  serializedVersion: 2
  m_Size: {x: 0.21, y: 6}
  m_EdgeRadius: 0
--- !u!61 &1025207555
BoxCollider2D:
  m_ObjectHideFlags: 0
  m_PrefabParentObject: {fileID: 0}
  m_PrefabInternal: {fileID: 0}
  m_GameObject: {fileID: 1025207551}
  m_Enabled: 1
  m_Density: 1
  m_Material: {fileID: 0}
  m_IsTrigger: 0
  m_UsedByEffector: 0
  m_UsedByComposite: 0
  m_Offset: {x: 2.96, y: 0}
  m_SpriteTilingProperty:
    border: {x: 0, y: 0, z: 0, w: 0}
    pivot: {x: 0.5, y: 0.5}
    oldSize: {x: 6.09, y: 6}
    newSize: {x: 6.09, y: 6}
    adaptiveTilingThreshold: 0.5
    drawMode: 0
    adaptiveTiling: 0
  m_AutoTiling: 0
  serializedVersion: 2
  m_Size: {x: 0.21, y: 6}
  m_EdgeRadius: 0
--- !u!212 &1025207556
SpriteRenderer:
  m_ObjectHideFlags: 0
  m_PrefabParentObject: {fileID: 0}
  m_PrefabInternal: {fileID: 0}
  m_GameObject: {fileID: 1025207551}
  m_Enabled: 1
  m_CastShadows: 0
  m_ReceiveShadows: 0
  m_MotionVectors: 1
  m_LightProbeUsage: 1
  m_ReflectionProbeUsage: 1
  m_Materials:
  - {fileID: 10754, guid: 0000000000000000f000000000000000, type: 0}
  m_StaticBatchInfo:
    firstSubMesh: 0
    subMeshCount: 0
  m_StaticBatchRoot: {fileID: 0}
  m_ProbeAnchor: {fileID: 0}
  m_LightProbeVolumeOverride: {fileID: 0}
  m_ScaleInLightmap: 1
  m_PreserveUVs: 0
  m_IgnoreNormalsForChartDetection: 0
  m_ImportantGI: 0
  m_SelectedEditorRenderState: 0
  m_MinimumChartSize: 4
  m_AutoUVMaxDistance: 0.5
  m_AutoUVMaxAngle: 89
  m_LightmapParameters: {fileID: 0}
  m_SortingLayerID: 0
  m_SortingLayer: 0
  m_SortingOrder: 0
  m_Sprite: {fileID: 21300000, guid: 611eda24853da4141bf513ec4044a1c9, type: 3}
  m_Color: {r: 1, g: 1, b: 1, a: 1}
  m_FlipX: 0
  m_FlipY: 0
  m_DrawMode: 0
  m_Size: {x: 6.09, y: 6}
  m_AdaptiveModeThreshold: 0.5
  m_SpriteTileMode: 0
  m_WasSpriteAssigned: 1
  m_MaskInteraction: 0
--- !u!4 &1025207557
Transform:
  m_ObjectHideFlags: 0
  m_PrefabParentObject: {fileID: 0}
  m_PrefabInternal: {fileID: 0}
  m_GameObject: {fileID: 1025207551}
  m_LocalRotation: {x: 0, y: 0, z: 0, w: 1}
  m_LocalPosition: {x: 0, y: 0, z: 0}
  m_LocalScale: {x: 2.3968291, y: 2.3968284, z: 2.3968284}
  m_Children: []
  m_Father: {fileID: 0}
  m_RootOrder: 2
  m_LocalEulerAnglesHint: {x: 0, y: 0, z: 0}
--- !u!1 &1035087834
GameObject:
  m_ObjectHideFlags: 0
  m_PrefabParentObject: {fileID: 0}
  m_PrefabInternal: {fileID: 0}
  serializedVersion: 5
  m_Component:
  - component: {fileID: 1035087835}
  m_Layer: 0
  m_Name: lorecoges
  m_TagString: Untagged
  m_Icon: {fileID: 0}
  m_NavMeshLayer: 0
  m_StaticEditorFlags: 0
  m_IsActive: 1
--- !u!4 &1035087835
Transform:
  m_ObjectHideFlags: 0
  m_PrefabParentObject: {fileID: 0}
  m_PrefabInternal: {fileID: 0}
  m_GameObject: {fileID: 1035087834}
  m_LocalRotation: {x: 0, y: 0, z: 0, w: 1}
  m_LocalPosition: {x: 0, y: 0, z: 0}
  m_LocalScale: {x: 1, y: 1, z: 1}
  m_Children:
  - {fileID: 1388759568}
  - {fileID: 2028425824}
  - {fileID: 1165129492}
  - {fileID: 349292906}
  - {fileID: 1718197329}
  - {fileID: 541310312}
  - {fileID: 1208167999}
  - {fileID: 2064726904}
  m_Father: {fileID: 0}
  m_RootOrder: 3
  m_LocalEulerAnglesHint: {x: 0, y: 0, z: 0}
--- !u!1001 &1128685620
Prefab:
  m_ObjectHideFlags: 0
  serializedVersion: 2
  m_Modification:
    m_TransformParent: {fileID: 1035087835}
    m_Modifications:
    - target: {fileID: 4961725550989932, guid: 2c6b3aadaf97c2b4a936dd93fbf33bb9, type: 2}
      propertyPath: m_LocalPosition.x
      value: 5.29
      objectReference: {fileID: 0}
    - target: {fileID: 4961725550989932, guid: 2c6b3aadaf97c2b4a936dd93fbf33bb9, type: 2}
      propertyPath: m_LocalPosition.y
      value: -2.41
      objectReference: {fileID: 0}
    - target: {fileID: 4961725550989932, guid: 2c6b3aadaf97c2b4a936dd93fbf33bb9, type: 2}
      propertyPath: m_LocalPosition.z
      value: 0
      objectReference: {fileID: 0}
    - target: {fileID: 4961725550989932, guid: 2c6b3aadaf97c2b4a936dd93fbf33bb9, type: 2}
      propertyPath: m_LocalRotation.x
      value: -0
      objectReference: {fileID: 0}
    - target: {fileID: 4961725550989932, guid: 2c6b3aadaf97c2b4a936dd93fbf33bb9, type: 2}
      propertyPath: m_LocalRotation.y
      value: -0
      objectReference: {fileID: 0}
    - target: {fileID: 4961725550989932, guid: 2c6b3aadaf97c2b4a936dd93fbf33bb9, type: 2}
      propertyPath: m_LocalRotation.z
      value: -0
      objectReference: {fileID: 0}
    - target: {fileID: 4961725550989932, guid: 2c6b3aadaf97c2b4a936dd93fbf33bb9, type: 2}
      propertyPath: m_LocalRotation.w
      value: 1
      objectReference: {fileID: 0}
    - target: {fileID: 4961725550989932, guid: 2c6b3aadaf97c2b4a936dd93fbf33bb9, type: 2}
      propertyPath: m_RootOrder
      value: 7
      objectReference: {fileID: 0}
    - target: {fileID: 1711769247799684, guid: 2c6b3aadaf97c2b4a936dd93fbf33bb9, type: 2}
      propertyPath: m_Name
      value: cajita (7)
      objectReference: {fileID: 0}
    - target: {fileID: 4961725550989932, guid: 2c6b3aadaf97c2b4a936dd93fbf33bb9, type: 2}
      propertyPath: m_LocalScale.x
      value: 0.59999996
      objectReference: {fileID: 0}
    - target: {fileID: 4961725550989932, guid: 2c6b3aadaf97c2b4a936dd93fbf33bb9, type: 2}
      propertyPath: m_LocalScale.y
      value: 0.59999996
      objectReference: {fileID: 0}
    - target: {fileID: 4961725550989932, guid: 2c6b3aadaf97c2b4a936dd93fbf33bb9, type: 2}
      propertyPath: m_LocalScale.z
      value: 0.59999996
      objectReference: {fileID: 0}
    - target: {fileID: 212729591488634346, guid: 2c6b3aadaf97c2b4a936dd93fbf33bb9,
        type: 2}
      propertyPath: m_Enabled
      value: 1
      objectReference: {fileID: 0}
    m_RemovedComponents: []
  m_ParentPrefab: {fileID: 100100000, guid: 2c6b3aadaf97c2b4a936dd93fbf33bb9, type: 2}
  m_IsPrefabParent: 0
--- !u!4 &1165129492 stripped
Transform:
  m_PrefabParentObject: {fileID: 4961725550989932, guid: 2c6b3aadaf97c2b4a936dd93fbf33bb9,
    type: 2}
  m_PrefabInternal: {fileID: 2054761216}
--- !u!1 &1193412009
GameObject:
  m_ObjectHideFlags: 0
  m_PrefabParentObject: {fileID: 0}
  m_PrefabInternal: {fileID: 0}
  serializedVersion: 5
  m_Component:
  - component: {fileID: 1193412012}
  - component: {fileID: 1193412011}
  - component: {fileID: 1193412013}
  - component: {fileID: 1193412010}
  - component: {fileID: 1193412014}
  m_Layer: 0
  m_Name: onlydaface
  m_TagString: Untagged
  m_Icon: {fileID: 0}
  m_NavMeshLayer: 0
  m_StaticEditorFlags: 0
  m_IsActive: 1
--- !u!114 &1193412010
MonoBehaviour:
  m_ObjectHideFlags: 0
  m_PrefabParentObject: {fileID: 0}
  m_PrefabInternal: {fileID: 0}
  m_GameObject: {fileID: 1193412009}
  m_Enabled: 1
  m_EditorHideFlags: 0
  m_Script: {fileID: 11500000, guid: da0bcdcda3cc9ed4f9fc52141c00fbbe, type: 3}
  m_Name: 
  m_EditorClassIdentifier: 
  velocidad: 10
  countText: {fileID: 1264470538}
--- !u!212 &1193412011
SpriteRenderer:
  m_ObjectHideFlags: 0
  m_PrefabParentObject: {fileID: 0}
  m_PrefabInternal: {fileID: 0}
  m_GameObject: {fileID: 1193412009}
  m_Enabled: 1
  m_CastShadows: 0
  m_ReceiveShadows: 0
  m_MotionVectors: 1
  m_LightProbeUsage: 1
  m_ReflectionProbeUsage: 1
  m_Materials:
  - {fileID: 10754, guid: 0000000000000000f000000000000000, type: 0}
  m_StaticBatchInfo:
    firstSubMesh: 0
    subMeshCount: 0
  m_StaticBatchRoot: {fileID: 0}
  m_ProbeAnchor: {fileID: 0}
  m_LightProbeVolumeOverride: {fileID: 0}
  m_ScaleInLightmap: 1
  m_PreserveUVs: 0
  m_IgnoreNormalsForChartDetection: 0
  m_ImportantGI: 0
  m_SelectedEditorRenderState: 0
  m_MinimumChartSize: 4
  m_AutoUVMaxDistance: 0.5
  m_AutoUVMaxAngle: 89
  m_LightmapParameters: {fileID: 0}
  m_SortingLayerID: 0
  m_SortingLayer: 0
  m_SortingOrder: 1
  m_Sprite: {fileID: 21300000, guid: b017554ba64d69842bbb81a7d3cb4e37, type: 3}
  m_Color: {r: 1, g: 1, b: 1, a: 1}
  m_FlipX: 0
  m_FlipY: 0
  m_DrawMode: 0
  m_Size: {x: 2.6, y: 3.29}
  m_AdaptiveModeThreshold: 0.5
  m_SpriteTileMode: 0
  m_WasSpriteAssigned: 1
  m_MaskInteraction: 0
--- !u!4 &1193412012
Transform:
  m_ObjectHideFlags: 0
  m_PrefabParentObject: {fileID: 0}
  m_PrefabInternal: {fileID: 0}
  m_GameObject: {fileID: 1193412009}
  m_LocalRotation: {x: 0, y: 0, z: 0, w: 1}
  m_LocalPosition: {x: -5.34, y: -4.93, z: 0}
  m_LocalScale: {x: 0.42439348, y: 0.42439348, z: 0.42439348}
  m_Children: []
  m_Father: {fileID: 0}
  m_RootOrder: 1
  m_LocalEulerAnglesHint: {x: 0, y: 0, z: 0}
--- !u!50 &1193412013
Rigidbody2D:
  serializedVersion: 4
  m_ObjectHideFlags: 0
  m_PrefabParentObject: {fileID: 0}
  m_PrefabInternal: {fileID: 0}
  m_GameObject: {fileID: 1193412009}
  m_BodyType: 0
  m_Simulated: 1
  m_UseFullKinematicContacts: 0
  m_UseAutoMass: 0
  m_Mass: 1
  m_LinearDrag: 0
  m_AngularDrag: 0.05
  m_GravityScale: 0
  m_Material: {fileID: 0}
  m_Interpolate: 0
  m_SleepingMode: 1
  m_CollisionDetection: 0
  m_Constraints: 0
--- !u!61 &1193412014
BoxCollider2D:
  m_ObjectHideFlags: 0
  m_PrefabParentObject: {fileID: 0}
  m_PrefabInternal: {fileID: 0}
  m_GameObject: {fileID: 1193412009}
  m_Enabled: 1
  m_Density: 1
  m_Material: {fileID: 0}
  m_IsTrigger: 0
  m_UsedByEffector: 0
  m_UsedByComposite: 0
  m_Offset: {x: 0, y: 0}
  m_SpriteTilingProperty:
    border: {x: 0, y: 0, z: 0, w: 0}
    pivot: {x: 0.5, y: 0.5}
    oldSize: {x: 2.6, y: 3.29}
    newSize: {x: 2.6, y: 3.29}
    adaptiveTilingThreshold: 0.5
    drawMode: 0
    adaptiveTiling: 0
  m_AutoTiling: 0
  serializedVersion: 2
  m_Size: {x: 2.6, y: 3.29}
  m_EdgeRadius: 0
--- !u!4 &1208167999 stripped
Transform:
  m_PrefabParentObject: {fileID: 4961725550989932, guid: 2c6b3aadaf97c2b4a936dd93fbf33bb9,
    type: 2}
  m_PrefabInternal: {fileID: 1524621240}
--- !u!1 &1264470536
GameObject:
  m_ObjectHideFlags: 0
  m_PrefabParentObject: {fileID: 0}
  m_PrefabInternal: {fileID: 0}
  serializedVersion: 5
  m_Component:
  - component: {fileID: 1264470537}
  - component: {fileID: 1264470539}
  - component: {fileID: 1264470538}
  m_Layer: 5
  m_Name: count text
  m_TagString: Untagged
  m_Icon: {fileID: 0}
  m_NavMeshLayer: 0
  m_StaticEditorFlags: 0
  m_IsActive: 1
--- !u!224 &1264470537
RectTransform:
  m_ObjectHideFlags: 0
  m_PrefabParentObject: {fileID: 0}
  m_PrefabInternal: {fileID: 0}
  m_GameObject: {fileID: 1264470536}
  m_LocalRotation: {x: 0, y: 0, z: 0, w: 1}
  m_LocalPosition: {x: 0, y: 0, z: 0}
  m_LocalScale: {x: 1, y: 1, z: 1}
  m_Children:
  - {fileID: 178304897}
  m_Father: {fileID: 814209030}
  m_RootOrder: 0
  m_LocalEulerAnglesHint: {x: 0, y: 0, z: 0}
  m_AnchorMin: {x: 0, y: 1}
  m_AnchorMax: {x: 0, y: 1}
  m_AnchoredPosition: {x: 87, y: -28}
  m_SizeDelta: {x: 160, y: 30}
  m_Pivot: {x: 0, y: 1}
--- !u!114 &1264470538
MonoBehaviour:
  m_ObjectHideFlags: 0
  m_PrefabParentObject: {fileID: 0}
  m_PrefabInternal: {fileID: 0}
  m_GameObject: {fileID: 1264470536}
  m_Enabled: 1
  m_EditorHideFlags: 0
  m_Script: {fileID: 708705254, guid: f70555f144d8491a825f0804e09c671c, type: 3}
  m_Name: 
  m_EditorClassIdentifier: 
  m_Material: {fileID: 0}
  m_Color: {r: 0.9034528, g: 0.9852941, b: 0.1376514, a: 1}
  m_RaycastTarget: 1
  m_OnCullStateChanged:
    m_PersistentCalls:
      m_Calls: []
    m_TypeName: UnityEngine.UI.MaskableGraphic+CullStateChangedEvent, UnityEngine.UI,
      Version=1.0.0.0, Culture=neutral, PublicKeyToken=null
  m_FontData:
    m_Font: {fileID: 10102, guid: 0000000000000000e000000000000000, type: 0}
    m_FontSize: 100
    m_FontStyle: 0
    m_BestFit: 0
    m_MinSize: 1
    m_MaxSize: 100
    m_Alignment: 4
    m_AlignByGeometry: 0
    m_RichText: 1
    m_HorizontalOverflow: 1
    m_VerticalOverflow: 1
    m_LineSpacing: 1
  m_Text: 'cajitas:'
--- !u!222 &1264470539
CanvasRenderer:
  m_ObjectHideFlags: 0
  m_PrefabParentObject: {fileID: 0}
  m_PrefabInternal: {fileID: 0}
  m_GameObject: {fileID: 1264470536}
--- !u!4 &1388759568 stripped
Transform:
  m_PrefabParentObject: {fileID: 4961725550989932, guid: 2c6b3aadaf97c2b4a936dd93fbf33bb9,
    type: 2}
  m_PrefabInternal: {fileID: 1562606070}
--- !u!1001 &1524621240
Prefab:
  m_ObjectHideFlags: 0
  serializedVersion: 2
  m_Modification:
    m_TransformParent: {fileID: 1035087835}
    m_Modifications:
    - target: {fileID: 4961725550989932, guid: 2c6b3aadaf97c2b4a936dd93fbf33bb9, type: 2}
      propertyPath: m_LocalPosition.x
      value: -4.36
      objectReference: {fileID: 0}
    - target: {fileID: 4961725550989932, guid: 2c6b3aadaf97c2b4a936dd93fbf33bb9, type: 2}
      propertyPath: m_LocalPosition.y
      value: 0.44
      objectReference: {fileID: 0}
    - target: {fileID: 4961725550989932, guid: 2c6b3aadaf97c2b4a936dd93fbf33bb9, type: 2}
      propertyPath: m_LocalPosition.z
      value: 0
      objectReference: {fileID: 0}
    - target: {fileID: 4961725550989932, guid: 2c6b3aadaf97c2b4a936dd93fbf33bb9, type: 2}
      propertyPath: m_LocalRotation.x
      value: -0
      objectReference: {fileID: 0}
    - target: {fileID: 4961725550989932, guid: 2c6b3aadaf97c2b4a936dd93fbf33bb9, type: 2}
      propertyPath: m_LocalRotation.y
      value: -0
      objectReference: {fileID: 0}
    - target: {fileID: 4961725550989932, guid: 2c6b3aadaf97c2b4a936dd93fbf33bb9, type: 2}
      propertyPath: m_LocalRotation.z
      value: -0
      objectReference: {fileID: 0}
    - target: {fileID: 4961725550989932, guid: 2c6b3aadaf97c2b4a936dd93fbf33bb9, type: 2}
      propertyPath: m_LocalRotation.w
      value: 1
      objectReference: {fileID: 0}
    - target: {fileID: 4961725550989932, guid: 2c6b3aadaf97c2b4a936dd93fbf33bb9, type: 2}
      propertyPath: m_RootOrder
      value: 6
      objectReference: {fileID: 0}
    - target: {fileID: 1711769247799684, guid: 2c6b3aadaf97c2b4a936dd93fbf33bb9, type: 2}
      propertyPath: m_Name
      value: cajita (6)
      objectReference: {fileID: 0}
    - target: {fileID: 4961725550989932, guid: 2c6b3aadaf97c2b4a936dd93fbf33bb9, type: 2}
      propertyPath: m_LocalScale.x
      value: 0.59999996
      objectReference: {fileID: 0}
    - target: {fileID: 4961725550989932, guid: 2c6b3aadaf97c2b4a936dd93fbf33bb9, type: 2}
      propertyPath: m_LocalScale.y
      value: 0.59999996
      objectReference: {fileID: 0}
    - target: {fileID: 4961725550989932, guid: 2c6b3aadaf97c2b4a936dd93fbf33bb9, type: 2}
      propertyPath: m_LocalScale.z
      value: 0.59999996
      objectReference: {fileID: 0}
    m_RemovedComponents: []
  m_ParentPrefab: {fileID: 100100000, guid: 2c6b3aadaf97c2b4a936dd93fbf33bb9, type: 2}
  m_IsPrefabParent: 0
--- !u!1001 &1562606070
Prefab:
  m_ObjectHideFlags: 0
  serializedVersion: 2
  m_Modification:
    m_TransformParent: {fileID: 1035087835}
    m_Modifications:
    - target: {fileID: 4961725550989932, guid: 2c6b3aadaf97c2b4a936dd93fbf33bb9, type: 2}
      propertyPath: m_LocalPosition.x
      value: -2.5
      objectReference: {fileID: 0}
    - target: {fileID: 4961725550989932, guid: 2c6b3aadaf97c2b4a936dd93fbf33bb9, type: 2}
      propertyPath: m_LocalPosition.y
      value: -2.03
      objectReference: {fileID: 0}
    - target: {fileID: 4961725550989932, guid: 2c6b3aadaf97c2b4a936dd93fbf33bb9, type: 2}
      propertyPath: m_LocalPosition.z
      value: 0
      objectReference: {fileID: 0}
    - target: {fileID: 4961725550989932, guid: 2c6b3aadaf97c2b4a936dd93fbf33bb9, type: 2}
      propertyPath: m_LocalRotation.x
      value: 0
      objectReference: {fileID: 0}
    - target: {fileID: 4961725550989932, guid: 2c6b3aadaf97c2b4a936dd93fbf33bb9, type: 2}
      propertyPath: m_LocalRotation.y
      value: 0
      objectReference: {fileID: 0}
    - target: {fileID: 4961725550989932, guid: 2c6b3aadaf97c2b4a936dd93fbf33bb9, type: 2}
      propertyPath: m_LocalRotation.z
      value: 0
      objectReference: {fileID: 0}
    - target: {fileID: 4961725550989932, guid: 2c6b3aadaf97c2b4a936dd93fbf33bb9, type: 2}
      propertyPath: m_LocalRotation.w
      value: 1
      objectReference: {fileID: 0}
    - target: {fileID: 4961725550989932, guid: 2c6b3aadaf97c2b4a936dd93fbf33bb9, type: 2}
      propertyPath: m_RootOrder
      value: 0
      objectReference: {fileID: 0}
    m_RemovedComponents: []
  m_ParentPrefab: {fileID: 100100000, guid: 2c6b3aadaf97c2b4a936dd93fbf33bb9, type: 2}
  m_IsPrefabParent: 0
--- !u!1001 &1585384808
Prefab:
  m_ObjectHideFlags: 0
  serializedVersion: 2
  m_Modification:
    m_TransformParent: {fileID: 1035087835}
    m_Modifications:
    - target: {fileID: 4961725550989932, guid: 2c6b3aadaf97c2b4a936dd93fbf33bb9, type: 2}
      propertyPath: m_LocalPosition.x
      value: -2.51
      objectReference: {fileID: 0}
    - target: {fileID: 4961725550989932, guid: 2c6b3aadaf97c2b4a936dd93fbf33bb9, type: 2}
      propertyPath: m_LocalPosition.y
      value: 3.35
      objectReference: {fileID: 0}
    - target: {fileID: 4961725550989932, guid: 2c6b3aadaf97c2b4a936dd93fbf33bb9, type: 2}
      propertyPath: m_LocalPosition.z
      value: 0
      objectReference: {fileID: 0}
    - target: {fileID: 4961725550989932, guid: 2c6b3aadaf97c2b4a936dd93fbf33bb9, type: 2}
      propertyPath: m_LocalRotation.x
      value: -0
      objectReference: {fileID: 0}
    - target: {fileID: 4961725550989932, guid: 2c6b3aadaf97c2b4a936dd93fbf33bb9, type: 2}
      propertyPath: m_LocalRotation.y
      value: -0
      objectReference: {fileID: 0}
    - target: {fileID: 4961725550989932, guid: 2c6b3aadaf97c2b4a936dd93fbf33bb9, type: 2}
      propertyPath: m_LocalRotation.z
      value: -0
      objectReference: {fileID: 0}
    - target: {fileID: 4961725550989932, guid: 2c6b3aadaf97c2b4a936dd93fbf33bb9, type: 2}
      propertyPath: m_LocalRotation.w
      value: 1
      objectReference: {fileID: 0}
    - target: {fileID: 4961725550989932, guid: 2c6b3aadaf97c2b4a936dd93fbf33bb9, type: 2}
      propertyPath: m_RootOrder
      value: 3
      objectReference: {fileID: 0}
    - target: {fileID: 1711769247799684, guid: 2c6b3aadaf97c2b4a936dd93fbf33bb9, type: 2}
      propertyPath: m_Name
      value: cajita (3)
      objectReference: {fileID: 0}
    - target: {fileID: 4961725550989932, guid: 2c6b3aadaf97c2b4a936dd93fbf33bb9, type: 2}
      propertyPath: m_LocalScale.x
      value: 0.59999996
      objectReference: {fileID: 0}
    - target: {fileID: 4961725550989932, guid: 2c6b3aadaf97c2b4a936dd93fbf33bb9, type: 2}
      propertyPath: m_LocalScale.y
      value: 0.59999996
      objectReference: {fileID: 0}
    - target: {fileID: 4961725550989932, guid: 2c6b3aadaf97c2b4a936dd93fbf33bb9, type: 2}
      propertyPath: m_LocalScale.z
      value: 0.59999996
      objectReference: {fileID: 0}
    m_RemovedComponents: []
  m_ParentPrefab: {fileID: 100100000, guid: 2c6b3aadaf97c2b4a936dd93fbf33bb9, type: 2}
  m_IsPrefabParent: 0
--- !u!4 &1718197329 stripped
Transform:
  m_PrefabParentObject: {fileID: 4961725550989932, guid: 2c6b3aadaf97c2b4a936dd93fbf33bb9,
    type: 2}
  m_PrefabInternal: {fileID: 776511317}
--- !u!1001 &2022091061
Prefab:
  m_ObjectHideFlags: 0
  serializedVersion: 2
  m_Modification:
    m_TransformParent: {fileID: 1035087835}
    m_Modifications:
    - target: {fileID: 4961725550989932, guid: 2c6b3aadaf97c2b4a936dd93fbf33bb9, type: 2}
      propertyPath: m_LocalPosition.x
      value: 3.95
      objectReference: {fileID: 0}
    - target: {fileID: 4961725550989932, guid: 2c6b3aadaf97c2b4a936dd93fbf33bb9, type: 2}
      propertyPath: m_LocalPosition.y
      value: 0.9
      objectReference: {fileID: 0}
    - target: {fileID: 4961725550989932, guid: 2c6b3aadaf97c2b4a936dd93fbf33bb9, type: 2}
      propertyPath: m_LocalPosition.z
      value: 0
      objectReference: {fileID: 0}
    - target: {fileID: 4961725550989932, guid: 2c6b3aadaf97c2b4a936dd93fbf33bb9, type: 2}
      propertyPath: m_LocalRotation.x
      value: -0
      objectReference: {fileID: 0}
    - target: {fileID: 4961725550989932, guid: 2c6b3aadaf97c2b4a936dd93fbf33bb9, type: 2}
      propertyPath: m_LocalRotation.y
      value: -0
      objectReference: {fileID: 0}
    - target: {fileID: 4961725550989932, guid: 2c6b3aadaf97c2b4a936dd93fbf33bb9, type: 2}
      propertyPath: m_LocalRotation.z
      value: -0
      objectReference: {fileID: 0}
    - target: {fileID: 4961725550989932, guid: 2c6b3aadaf97c2b4a936dd93fbf33bb9, type: 2}
      propertyPath: m_LocalRotation.w
      value: 1
      objectReference: {fileID: 0}
    - target: {fileID: 4961725550989932, guid: 2c6b3aadaf97c2b4a936dd93fbf33bb9, type: 2}
      propertyPath: m_RootOrder
      value: 5
      objectReference: {fileID: 0}
    - target: {fileID: 1711769247799684, guid: 2c6b3aadaf97c2b4a936dd93fbf33bb9, type: 2}
      propertyPath: m_Name
      value: cajita (5)
      objectReference: {fileID: 0}
    - target: {fileID: 4961725550989932, guid: 2c6b3aadaf97c2b4a936dd93fbf33bb9, type: 2}
      propertyPath: m_LocalScale.x
      value: 0.59999996
      objectReference: {fileID: 0}
    - target: {fileID: 4961725550989932, guid: 2c6b3aadaf97c2b4a936dd93fbf33bb9, type: 2}
      propertyPath: m_LocalScale.y
      value: 0.59999996
      objectReference: {fileID: 0}
    - target: {fileID: 4961725550989932, guid: 2c6b3aadaf97c2b4a936dd93fbf33bb9, type: 2}
      propertyPath: m_LocalScale.z
      value: 0.59999996
      objectReference: {fileID: 0}
    m_RemovedComponents: []
  m_ParentPrefab: {fileID: 100100000, guid: 2c6b3aadaf97c2b4a936dd93fbf33bb9, type: 2}
  m_IsPrefabParent: 0
--- !u!4 &2028425824 stripped
Transform:
  m_PrefabParentObject: {fileID: 4961725550989932, guid: 2c6b3aadaf97c2b4a936dd93fbf33bb9,
    type: 2}
  m_PrefabInternal: {fileID: 930871931}
--- !u!1001 &2054761216
Prefab:
  m_ObjectHideFlags: 0
  serializedVersion: 2
  m_Modification:
    m_TransformParent: {fileID: 1035087835}
    m_Modifications:
    - target: {fileID: 4961725550989932, guid: 2c6b3aadaf97c2b4a936dd93fbf33bb9, type: 2}
      propertyPath: m_LocalPosition.x
      value: 2.04
      objectReference: {fileID: 0}
    - target: {fileID: 4961725550989932, guid: 2c6b3aadaf97c2b4a936dd93fbf33bb9, type: 2}
      propertyPath: m_LocalPosition.y
      value: 1.96
      objectReference: {fileID: 0}
    - target: {fileID: 4961725550989932, guid: 2c6b3aadaf97c2b4a936dd93fbf33bb9, type: 2}
      propertyPath: m_LocalPosition.z
      value: 0
      objectReference: {fileID: 0}
    - target: {fileID: 4961725550989932, guid: 2c6b3aadaf97c2b4a936dd93fbf33bb9, type: 2}
      propertyPath: m_LocalRotation.x
      value: -0
      objectReference: {fileID: 0}
    - target: {fileID: 4961725550989932, guid: 2c6b3aadaf97c2b4a936dd93fbf33bb9, type: 2}
      propertyPath: m_LocalRotation.y
      value: -0
      objectReference: {fileID: 0}
    - target: {fileID: 4961725550989932, guid: 2c6b3aadaf97c2b4a936dd93fbf33bb9, type: 2}
      propertyPath: m_LocalRotation.z
      value: -0
      objectReference: {fileID: 0}
    - target: {fileID: 4961725550989932, guid: 2c6b3aadaf97c2b4a936dd93fbf33bb9, type: 2}
      propertyPath: m_LocalRotation.w
      value: 1
      objectReference: {fileID: 0}
    - target: {fileID: 4961725550989932, guid: 2c6b3aadaf97c2b4a936dd93fbf33bb9, type: 2}
      propertyPath: m_RootOrder
      value: 2
      objectReference: {fileID: 0}
    - target: {fileID: 1711769247799684, guid: 2c6b3aadaf97c2b4a936dd93fbf33bb9, type: 2}
      propertyPath: m_Name
      value: cajita (2)
      objectReference: {fileID: 0}
    - target: {fileID: 4961725550989932, guid: 2c6b3aadaf97c2b4a936dd93fbf33bb9, type: 2}
      propertyPath: m_LocalScale.x
      value: 0.59999996
      objectReference: {fileID: 0}
    - target: {fileID: 4961725550989932, guid: 2c6b3aadaf97c2b4a936dd93fbf33bb9, type: 2}
      propertyPath: m_LocalScale.y
      value: 0.59999996
      objectReference: {fileID: 0}
    - target: {fileID: 4961725550989932, guid: 2c6b3aadaf97c2b4a936dd93fbf33bb9, type: 2}
      propertyPath: m_LocalScale.z
      value: 0.59999996
      objectReference: {fileID: 0}
    m_RemovedComponents: []
  m_ParentPrefab: {fileID: 100100000, guid: 2c6b3aadaf97c2b4a936dd93fbf33bb9, type: 2}
  m_IsPrefabParent: 0
--- !u!4 &2064726904 stripped
Transform:
  m_PrefabParentObject: {fileID: 4961725550989932, guid: 2c6b3aadaf97c2b4a936dd93fbf33bb9,
    type: 2}
  m_PrefabInternal: {fileID: 1128685620}
