%YAML 1.1
%TAG !u! tag:unity3d.com,2011:
--- !u!1045 &1
EditorBuildSettings:
  m_ObjectHideFlags: 0
  serializedVersion: 2
  m_Scenes:
  - enabled: 1
    path: Assets/infinityjump/infinityjump.unity
    guid: 0fdf8c61316ce9b4fa6ab14776e32d74
